{
    "name": "star-trek-service",
    "version": "1.0",
    "host": "star-trek-host.com",
    "path": "/star-trek-service",
    "title": "Star Trek",
    "description": "Put description here",
    "color": "blue",
    "icon": "key",
    "infrastructure": {
        "awsRegion": "eu-central-1",
        "stages": {
            "dev": {
                "awsAccount": "558216501173",
                "awsProfile": "vwfs-du-ospie-dev",
                "environment": {}
            },
            "int": {
                "awsAccount": "423714598926",
                "awsProfile": "vwfs-du-ospie-int",
                "environment": {}
            },
            "cons": {
                "awsAccount": "714803932037",
                "awsProfile": "vwfs-du-ospie-cons",
                "environment": {}
            }
        },
        "assets": {
            "buckets": [
                "hagrid-star-trek-bucket"
            ],
            "dynamoTables": [
                {
                    "tableName": "hagrid-start-trek-table",
                    "key": "id",
                    "timeToLiveAttributeName": "TTL"
                }
            ]
        }
    },
    "platform": {
        "mpsTenant": "vwfs-du-ospie",
        "repositoryUrl": "acbears/hagrid-star-trek"
    }
}